1 10 20
100 200 125
201 210 89
900 1000 174
1 20000 279
20000 1 279
8887 8888 97
1 1 1
1 2 2
50 51 25
51 50 25
9000 5000 262
9999 9998 92
7676 6767 257
999999 999998 259
999999 999999 259
888888 888888 119
1 9999 262
2 88888 351
4 50 112
20 80 116
35 50 110
100 40000 324
87652 1 351
5839 93583 351
1 2000 182
685 4343 238
532 53252 340
5 3525 217
50 54 113
542 3525 217
52358 58233 340
80000 99 351
99 88888 351
500 234 144
4324 83242 351
1 4 8
2199 9999 262
9999 9999 92
42144 2 324
99875 34234 351
532 5323 238
12 13 10
90863 18424 351
19 5999 238
300 50000 324
124 600 144
5439 32423 308
34 398 144
400 4567 238
924 5456 238
7895 35980 324
87654 99999 333
4329 48294 324
33 34253 311
5329 53289 340
8694 8943 216
790 67239 340
64 64236 340
694 86239 351
5294 59746 340
5489 5489 130
90 43989 324
84932 89324 333
99 100 26
1849 89302 351
38593 7593 324
5792 7593 262
57392 7932 340
57932 79238 351
7953 7932 146
7923 75932 340
9 74832 340
7 473 144
48732 32 324
122 125 109
894 8934 262
34 893 179
8923 9834 260
9998 8889 260
432 8439 262
486 8593 262
300 360 144
75 80 36
89 90 31
95 100 119
784 787 122
595 4533 238
89 543 144
589 890 179
11 123 119
15 167 122
19 185 125
8942 89142 351
14928 12499 276
349 8943 262
893 39423 324
9009 9083 185
5454 5475 161
5000 25000 282
55 68 113
45 50 105
60 70 108
55 61 113
4 63 113
53 64 113
34 75 116
158 159 55
282 283 61
392 393 59
