.....................
----------------------------------------------------------------------
Ran 21 tests in 7.821s
OK
Name             Stmts   Miss Branch BrPart  Cover   Missing
------------------------------------------------------------
Collatz.py          48      0     20      0   100%
TestCollatz.py      90      0      2      0   100%
------------------------------------------------------------
TOTAL              138      0     22      0   100%
