784775 881110 525
575593 862763 525
716885 805117 468
169578 759435 509
490419 931661 525
536034 959667 525
941904 993116 458
243586 651235 509
857383 889089 445
772402 990187 525
764879 920660 525
205439 484461 449
909501 954359 507
222965 452921 449
607184 946960 525
420385 974564 525
315880 662020 509
99029 867886 525
675663 942557 525
262623 319223 407
957013 987708 458
985161 988239 396
438689 965222 525
322535 349703 441
901655 967902 507
520643 613530 452
309117 876358 525
91709 867159 525
42220 107382 354
50903 642565 509
164828 437269 449
460172 625510 470
753211 970329 525
110962 310147 443
416704 654145 509
291728 818362 509
345272 737073 509
977138 990454 427
241484 842399 525
827904 945326 525
560006 825966 509
849748 936362 476
11730 522065 470
489422 832489 509
403514 815885 509
465497 657610 509
630834 717570 504
58914 630527 509
988691 992025 352
942296 970482 414
967468 968901 321
995788 997934 440
146312 258443 443
45674 449660 449
520837 902253 525
838642 840143 388
469603 646949 509
767478 768371 468
840226 957055 507
822035 901657 525
390922 467971 449
461715 897474 525
156899 943360 525
222778 627622 509
710774 784562 468
329031 471717 449
945915 954520 414
847788 895542 445
393738 751174 509
401668 410646 449
993147 998905 440
896925 960977 507
582321 829298 509
927591 956132 507
63000 399294 443
669570 688785 398
744752 840658 525
692041 713683 504
903692 936086 476
23053 727881 509
542682 689420 509
389282 900689 525
570007 716796 509
889709 903973 401
592833 969796 525
53751 718447 509
46297 118301 354
773040 859834 525
21974 477888 449
434200 831797 509
244687 854601 525
175444 383367 443
290375 485042 449
60635 558780 470
658825 957749 525
811095 819001 450
65858 665337 509
174564 437534 449
310197 933723 525
774392 888937 525
1 1 1
1 2 2
10 1 20
