1 99876 351
1 10 20
100 200 125
201 210 89
900 1000 174
10 1 20


1 1 1
35 1 112
2 1 2
3 3 8
4 1 8
1 3 8
542 3 144
999 1 179
1 999 179
431 4313 238
213 431 144
893 3223 217
2 2 2
1000 999 112
999 1000 112
8888 8888 35
10 101 119
101 102 26
45 54 113
10 10000 262
23 2131 182
23231 22 279
121 4594 238
2344 1 183
3213 3211 124
5449 34 238
213 321 131
1 200 125
883 2323 183
431 4490 238
549 430 142
331 590 142
96050 42 351
429 23 144
18542 3 279
43 98129 351
319 1220 182
43809 1349 324
605293 606510 341
956739 956006 352
826611 825983 313
756134 756776 362
478642 479101 338
815892 815933 269
719220 719135 274
929349 929040 339
948351 948681 326
491808 491202 320
504516 507852 382
604712 604712 67
436809 436182 325
630804 630542 310
786313 786051 269
780568 780732 300
363174 361163 361
261481 261858 288
908012 909802 370
827554 827930 313
850429 850334 313
737959 737960 150
809210 810518 406
974713 974143 321
456486 455019 338
727712 727631 287
743706 745566 318
465147 463724 338
945152 944673 352
776248 775948 331
541191 542743 364
256518 255672 332
947523 950576 383
423648 421688 356
319662 322868 371
560495 559981 359
831101 831011 251
784445 782843 331
859271 859331 295
998394 998498 277
975465 975228 228
687538 680880 398
806280 806281 70
379341 379868 361
155281 158691 383
854261 855194 357
827665 827456 419
806029 805322 375
276791 280194 389
655238 655329 292
574485 575669 328
588113 587943 266
748123 748033 318
930036 929896 264
982165 982843 383
975948 975688 334
945718 945752 202
747700 747747 243
652581 653137 336
824003 823974 238
655077 655161 186
567537 567893 346
851101 851038 238
524621 524569 302
549210 549073 240
782205 782263 287
422252 422691 325
285142 285524 376
478472 479285 338
485461 484957 320
748121 748121 256
823874 824088 238
359661 358904 317
388654 388444 299
981428 981459 184
830977 832487 419
654572 654612 248
240125 241624 368
532347 536933 377
545105 545167 209
850670 851113 357
978562 976960 383
358577 358839 348
842747 844169 388
612687 612358 297
810273 809602 344
431700 431055 312
281758 283365 358
984263 984008 352
884741 885879 370
724852 724070 362
869222 869573 388
999 3000 217
1 999999 525
